1500,7919,1753,1005,31,16,44,679,471,0
1501,16,1,1,1,1,1,0,0,0
1502,221,51,11,21,8,13,16,232,0
1503,20006,9366,2061,413,6,428,3691,692,0
1504,15117,2660,543,131,3,137,928,1730,0
1505,6737,522,136,35,11,28,219,2607,0
1506,16294,17955,6856,45,13,158,6867,608,0
1507,15647,191298,145527,21,6,163,52580,31,0
1508,8613,39332,15744,3,1,127,10560,430,0
1509,9313,1953,682,120,4,81,797,2625,0
1510,22,129,62,32,15,33,35,433,0
1511,1610,405,89,32,6,11,163,1320,0
1512,44,6,1,1,1,6,2,8360,0
1513,747,560,223,69,3,65,202,1525,0
1514,6737,522,136,35,11,28,219,2607,0
1515,3702,2426,1067,72,20,101,894,631,0
1516,3137,480,251,1,1,1,203,301,0
1517,15647,191298,145527,21,6,163,52580,31,0
1518,75,402,315,516,1,426,147,100,0
1519,59,3,3,1,1,1,1,0,0
1520,2266,636,170,112,1,66,206,1679,0
1521,6974,6518,1702,48,3,71,2335,596,0
1522,213,230,135,48,26,44,95,966,0
1523,826,1181,567,64,8,98,466,1052,0
1524,608,745,347,1,1,33,226,734,0
1525,5439,10432,5582,206,14,222,3048,600,0
1526,6190,567,119,1,1,58,211,549,0
1527,1857,4779,1525,507,70,426,1458,1365,0
1528,3484,148,26,1,1,1,60,767,0
1529,2,77,3,13,1,28,6,20,0
1530,1610,405,89,32,6,11,163,1320,0
1531,1504,253,87,21,1,16,102,1152,0
1532,447,29,9,1,1,6,9,195,0
1533,103,171,27,59,6,36,61,794,0
1534,655,343,213,13,6,14,157,856,0
1535,551,6319,4576,55,1,75,2603,38,0
1536,7870,481,64,4,4,4,207,299,0
1537,75,13,9,1,1,1,4,282,0
1538,449,929,165,25,1,30,355,1026,0
1539,6694,3078,725,21,6,28,1093,707,0
1540,192,151,33,8,3,6,68,506,0
1541,9,8,3,1,1,1,3,27,0
1542,7919,1753,1005,31,16,44,679,471,0
1543,6737,522,136,35,11,28,219,2607,0
1544,417,88,59,4,1,4,40,791,0
1545,2344,452,204,11,1,9,188,1122,0
1546,1780,72,42,11,4,14,33,1230,0
1547,113,3,1,4,1,9,1,0,0
1548,1069,312,95,127,11,170,126,3228,0
1549,31,1,1,11,1,16,0,0,0
1550,30,44,5,18,8,23,20,344,0
1551,9392,1463,845,13,1,40,600,548,0
1552,168,33,11,11,1,11,15,958,0
1553,5646,32373,19643,181,9,901,10953,100,0
1554,7,4,1,4,1,4,1,290,0
1555,144,81,77,11,11,425,12,1216,0
1556,883,1284,239,66,3,123,228,728,0
1557,479,676,269,18,3,48,230,2097,0
1558,1780,3882,138,259,3,176,804,2711,0
1559,1069,312,95,127,11,170,126,3228,0
1560,883,1284,239,66,3,123,228,728,0
1561,62,10,1,10,3,3,4,1548,0
1562,1664,388,142,75,8,50,168,3793,0
1563,6,6,3,8,3,8,2,15,0
1564,5439,10432,5582,206,14,222,3048,600,0
1565,26,188,60,77,50,107,52,332,0
1566,363,816,433,66,23,121,296,92,0
1567,15043,99021,50121,104,1,1931,28564,110,0
1568,31,22,16,4,1,26,9,1126,0
1569,6190,567,119,1,1,58,211,549,0
1570,52,124,71,21,6,47,50,1171,0
1571,44,41,7,16,8,18,15,1288,0
1572,52,124,71,21,6,47,50,1171,0
1573,3456,2239,856,237,93,211,871,3328,0
1574,47,41,26,1,1,11,17,50,0
1575,37,206,124,78,37,114,54,472,0
1576,3,22,3,70,13,41,9,146,0
1577,717,325,165,46,16,108,122,150,0
1578,2804,248,45,21,6,16,92,2583,0
1579,3673,12072,5997,8,6,70,3918,79,0
1580,1590,2996,802,1,1,1,791,1223,0
1581,222,53,16,23,1,16,18,1394,0
1582,655,343,213,13,6,14,157,856,0
1583,44,6,1,1,1,6,2,8360,0
1584,2794,772,240,125,26,126,307,1592,0
1585,13109,3744,953,26,16,23,1539,535,0
1586,6820,2464,747,213,13,153,683,2358,0
1587,15647,191298,145527,21,6,163,52580,31,0
1588,4475,1822,780,116,36,96,688,829,0
1589,5646,32373,19643,181,9,901,10953,100,0
1590,7522,6150,3293,41,13,123,2536,358,0
1591,26,188,60,77,50,107,52,332,0
1592,2641,1489,370,279,33,239,551,1274,0
1593,26,188,60,77,50,107,52,332,0
1594,12580,5301,1899,48,1,31,2164,809,0
1595,3417,193,73,1,1,1,60,448,0
1596,190,8,1,1,1,3,3,11210,0
1597,62,8,3,36,34,106,3,73,0
1598,195,158,53,142,14,66,60,890,0
1599,32,13,4,11,3,8,4,0,0
1600,1590,2996,802,1,1,1,791,1223,0
1601,5103,1503,681,55,1,719,568,2059,0
1602,2,1,1,1,1,3,0,0,0
1603,7371,2970,1358,150,48,83,1201,872,0
1604,151,52,12,23,6,38,14,945,0
1605,2672,2268,721,38,20,31,887,687,0
1606,1437,104,34,6,1,51,47,721,0
1607,8,8,1,1,1,1,3,2050,0
1608,0,4,1,3,1,11,1,1720,0
1609,2597,1153,228,169,21,107,441,2581,0
1610,1062,4525,1400,134,30,136,1796,137,0
1611,3673,12072,5997,8,6,70,3918,79,0
1612,12680,135806,18831,272,131,183,35645,169,0
1613,6666,449,51,23,6,23,170,3964,0
1614,378,558,247,16,3,25,177,555,0
1615,6694,3078,725,21,6,28,1093,707,0
1616,75,402,315,516,1,426,147,100,0
1617,195,158,53,142,14,66,60,890,0
1618,1236,2472,741,30,18,212,997,329,0
1619,113,3,1,4,1,9,1,0,0
1620,1236,2472,741,30,18,212,997,329,0
1621,8,8,1,1,1,1,3,2050,0
1622,9,3,3,1,1,1,1,770,0
1623,15647,191298,145527,21,6,163,52580,31,0
1624,14,1,1,3,1,3,0,0,0
1625,41,6,3,11,4,4,2,275,0
1626,75,402,315,516,1,426,147,100,0
1627,8613,39332,15744,3,1,127,10560,430,0
1628,40506,165326,98164,63,43,119,61842,103,0
1629,3137,480,251,1,1,1,203,301,0
1630,2804,248,45,21,6,16,92,2583,0
1631,16294,17955,6856,45,13,158,6867,608,0
1632,44,6,1,1,1,6,2,8360,0
1633,2672,2268,721,38,20,31,887,687,0
1634,198,11,8,1,1,6,4,405,0
1635,717,325,165,46,16,108,122,150,0
1636,12138,8376,936,76,26,49,2597,213,0
1637,7095,10059,4408,62,29,180,3999,391,0
1638,474,406,59,196,19,123,128,1074,0
1639,55,13,6,6,3,6,5,250,0
1640,4115,1718,373,44,15,42,690,1260,0
1641,747,560,223,69,3,65,202,1525,0
1642,1437,104,34,6,1,51,47,721,0
1643,1446,5,3,1,1,1,2,430,0
1644,124,29,15,8,1,11,12,406,0
1645,4074,551,234,23,1,72,239,2172,0
1646,146,3,1,4,1,4,1,0,0
1647,1061,646,215,223,6,275,271,1843,0
1648,6694,3078,725,21,6,28,1093,707,0
1649,6109,9086,2113,120,76,128,3366,100,0
1650,3,4,1,4,4,4,1,0,0
1651,307,48,1,18,6,21,18,663,0
1652,2794,772,240,125,26,126,307,1592,0
1653,608,745,347,1,1,33,226,734,0
1654,13675,14204,5736,28,9,90,4970,830,0
1655,0,4,1,3,1,11,1,1720,0
1656,60,44,3,17,3,6,17,384,0
1657,5439,10432,5582,206,14,222,3048,600,0
1658,16572,15608,5618,43,11,36,5759,332,0
1659,12138,8376,936,76,26,49,2597,213,0
1660,8613,39332,15744,3,1,127,10560,430,0
1661,5610,3858,1722,84,51,108,1330,616,0
1662,7371,2970,1358,150,48,83,1201,872,0
1663,13675,14204,5736,28,9,90,4970,830,0
1664,80794,24352,1867,1,1,6,9162,1231,0
1665,7594,657584,320541,16,1,26,187674,60,0
1666,2266,636,170,112,1,66,206,1679,0
1667,142,110,15,11,6,21,40,355,0
1668,62,10,1,10,3,3,4,1548,0
1669,113,3,1,4,1,9,1,0,0
1670,264,27,1,1,1,1,12,92,0
1671,17897,43364,6686,74,18,31,12252,164,0
1672,13252,876,287,67,26,50,351,584,0
1673,165,24,12,1,1,1,9,188,0
1674,34,118,11,56,19,59,34,765,0
1675,1,35,3,8,3,13,12,68,0
1676,38425,127257,49353,218,73,167,23939,245,0
1677,68,3,1,1,1,1,1,6690,0
1678,447,29,9,1,1,6,9,195,0
1679,16,31,13,11,1,11,12,1072,0
1680,192,151,33,8,3,6,68,506,0
1681,151,52,12,23,6,38,14,945,0
1682,35,4,4,6,1,8,1,990,0
1683,44,6,1,1,1,6,2,8360,0
1684,3166,4891,758,1,1,1,764,3092,0
1685,6248,6604,1455,50,23,63,2302,606,0
1686,20006,9366,2061,413,6,428,3691,692,0
1687,7870,481,64,4,4,4,207,299,0
1688,9,1,1,1,1,1,0,0,0
1689,131,1,1,1,1,1,0,0,0
1690,4994,57388,37382,158,36,322,20589,126,0
1691,3680,1656,891,52,24,72,682,830,0
1692,14,1,1,3,1,3,0,0,0
1693,2804,248,45,21,6,16,92,2583,0
1694,7594,657584,320541,16,1,26,187674,60,0
1695,883,1284,239,66,3,123,228,728,0
1696,16294,17955,6856,45,13,158,6867,608,0
1697,13838,1332,560,26,11,26,562,1352,0
1698,603,12533,9801,130,24,1005,4801,79,0
1699,15043,99021,50121,104,1,1931,28564,110,0
1700,496,1914,627,1,1,1,599,152,0
1701,1211,208,42,1,1,1,84,1272,0
1702,7522,6150,3293,41,13,123,2536,358,0
1703,30,3,1,1,1,1,1,170,0
1704,1415,2674,1287,324,35,266,852,275,0
1705,747,560,223,69,3,65,202,1525,0
1706,12,6,4,4,1,4,2,505,0
1707,1497,44967,23,1,1,1,14899,222,0
1708,1780,3882,138,259,3,176,804,2711,0
1709,15043,99021,50121,104,1,1931,28564,110,0
1710,32741,70686,37732,21,3,102,25313,113,0
1711,16328,3465,858,68,13,76,1323,2681,0
1712,10591,732,199,1,1,4,288,137,0
1713,62,10,1,10,3,3,4,1548,0
1714,2344,452,204,11,1,9,188,1122,0
1715,40,27,9,1,1,1,10,215,0
1716,400,72,26,18,3,8,28,863,0
1717,3673,12072,5997,8,6,70,3918,79,0
1718,461,15,7,11,11,25,7,2286,0
1719,29179,291470,180827,1,1,45,88154,41,0
1720,970,17295,7637,308,86,933,4067,123,0
1721,47,41,26,1,1,11,17,50,0
1722,13675,14204,5736,28,9,90,4970,830,0
1723,6820,2464,747,213,13,153,683,2358,0
1724,9876,3895,2176,4,1,8,1706,100,0
1725,7,4,1,4,1,4,1,290,0
1726,19715,1736362,523497,114,17,135,213718,53,0
1727,29,23,3,51,20,44,11,1924,0
1728,457,111,28,152,25,70,36,1231,0
1729,6666,449,51,23,6,23,170,3964,0
1730,29876,45000,22066,270,126,291,16646,227,0
1731,479,676,269,18,3,48,230,2097,0
1732,378,558,247,16,3,25,177,555,0
1733,5646,32373,19643,181,9,901,10953,100,0
1734,1437,104,34,6,1,51,47,721,0
1735,12,5,1,1,1,4,1,30,0
1736,59,3,3,1,1,1,1,0,0
1737,322,552,304,89,29,71,168,667,0
1738,119,11,3,3,3,6,5,606,0
1739,28,11,3,1,1,3,4,152,0
1740,7594,657584,320541,16,1,26,187674,60,0
1741,195,158,53,142,14,66,60,890,0
1742,7522,6150,3293,41,13,123,2536,358,0
1743,15647,191298,145527,21,6,163,52580,31,0
1744,5,16,3,16,3,11,6,285,0
1745,2910,1388,502,36,3,38,542,1261,0
1746,13675,14204,5736,28,9,90,4970,830,0
1747,12772,3118,1426,45,10,48,1280,485,0
1748,15,3,3,1,1,1,1,10,0
1749,25928,28217,7875,26,6,24,9896,120,0
1750,6734,6609,2971,283,8,207,2376,664,0
1751,222,53,16,23,1,16,18,1394,0
1752,1610,405,89,32,6,11,163,1320,0
1753,16338,36193,8783,78,23,236,12453,476,0
1754,3354,2585,1245,75,6,110,973,410,0
1755,142,110,15,11,6,21,40,355,0
1756,113,3,1,4,1,9,1,0,0
1757,146,3,1,4,1,4,1,0,0
1758,2,13,6,21,11,16,4,158,0
1759,2672,2268,721,38,20,31,887,687,0
1760,1781,5124,1439,46,18,51,1743,308,0
1761,363,816,433,66,23,121,296,92,0
1762,8805,1104,266,16,1,11,454,960,0
1763,47,41,26,1,1,11,17,50,0
1764,1590,2996,802,1,1,1,791,1223,0
1765,1356,15296,2829,768,54,1044,3307,501,0
1766,1492,206779,56070,13,1,337,56196,9,0
1767,2266,636,170,112,1,66,206,1679,0
1768,6190,567,119,1,1,58,211,549,0
1769,5956,679,179,14,6,13,266,1336,0
1770,2641,1489,370,279,33,239,551,1274,0
1771,11931,827,335,1,1,3,356,597,0
1772,4,11,1,4,1,6,5,1054,0
1773,417,88,59,4,1,4,40,791,0
1774,608,745,347,1,1,33,226,734,0
1775,44,6,1,1,1,6,2,8360,0
1776,249,91,13,35,1,26,36,1961,0
1777,142,110,15,11,6,21,40,355,0
1778,87,52,23,16,4,19,21,748,0
1779,8613,39332,15744,3,1,127,10560,430,0
1780,4074,551,234,23,1,72,239,2172,0
1781,16294,17955,6856,45,13,158,6867,608,0
1782,7522,6150,3293,41,13,123,2536,358,0
1783,13675,14204,5736,28,9,90,4970,830,0
1784,31,1,1,11,1,16,0,0,0
1785,43,20,14,1,1,364,6,47,0
1786,461,15,7,11,11,25,7,2286,0
1787,942,1400,778,21,1,194,466,300,0
1788,20,42,3,6,1,8,18,849,0
1789,105,4,4,1,1,1,1,90,0
1790,3381,11679,4153,499,81,825,3450,179,0
1791,10591,732,199,1,1,4,288,137,0
1792,30622,16743,3884,293,73,177,6261,532,0
1793,942,1400,778,21,1,194,466,300,0
1794,167,73,44,1,1,21,25,124,0
1795,6688,1316,235,74,1,74,568,2316,0
1796,417,85,33,6,1,6,32,1457,0
1797,6563,721,160,4,1,6,294,844,0
1798,131,1,1,1,1,1,0,0,0
1799,1781,5124,1439,46,18,51,1743,308,0
1800,453,48,16,1,1,1,21,191,0
1801,8606,7027,3759,8,3,132,2617,235,0
1802,213,96,3,1,1,1,42,268,0
1803,144,81,77,11,11,425,12,1216,0
1804,3673,12072,5997,8,6,70,3918,79,0
1805,43,20,14,1,1,364,6,47,0
1806,55,12,3,14,4,6,5,560,0
1807,12,6,4,4,1,4,2,505,0
1808,22,129,62,32,15,33,35,433,0
1809,168,33,11,11,1,11,15,958,0
1810,15,17,1,4,4,51,4,60,0
1811,5729,1996,678,94,4,41,669,392,0
1812,16328,3465,858,68,13,76,1323,2681,0
1813,4475,1822,780,116,36,96,688,829,0
1814,228,905,258,57,11,52,369,184,0
1815,474,406,59,196,19,123,128,1074,0
1816,228,905,258,57,11,52,369,184,0
1817,451,3,1,1,1,33,1,1300,0
1818,112,23,7,9,1,14,11,133,0
1819,1590,2996,802,1,1,1,791,1223,0
1820,890,2011,1363,1,1,1,728,246,0
1821,113,3,1,4,1,9,1,0,0
1822,415,117,37,36,1,31,47,2117,0
1823,10,1,1,1,1,1,0,0,0
1824,228,50,20,16,1,23,18,1136,0
1825,19715,1736362,523497,114,17,135,213718,53,0
1826,24,7,1,13,1,16,2,6855,0
1827,432,250,15,11,9,14,119,910,0
1828,2221,167,57,30,3,25,75,2214,0
1829,932,619,186,1,1,1,229,803,0
1830,222,53,16,23,1,16,18,1394,0
1831,1279,1020,968,15,11,35,432,112,0
1832,470,283,59,74,11,61,113,1001,0
1833,9295,811,431,1,1,1,336,2093,0
1834,67,6,6,16,1,22,2,5,0
1835,0,1,1,1,1,3,0,0,0
1836,890,2011,1363,1,1,1,728,246,0
1837,145,9,1,4,1,4,3,77,0
1838,208,285,174,44,11,34,115,484,0
1839,30622,16743,3884,293,73,177,6261,532,0
1840,5259,1415,353,38,6,30,578,974,0
1841,1446,5,3,1,1,1,2,430,0
1842,959,74,21,16,6,13,29,2055,0
1843,2513,152,43,1,1,1,69,3212,0
1844,79042,7098,2060,6,1,3,2737,598,0
1845,3673,12072,5997,8,6,70,3918,79,0
1846,826,1181,567,64,8,98,466,1052,0
1847,5646,32373,19643,181,9,901,10953,100,0
1848,551,6319,4576,55,1,75,2603,38,0
1849,3381,11679,4153,499,81,825,3450,179,0
1850,14,10,1,1,1,1,4,850,0
1851,4679,2869,378,67,1,85,758,1202,0
1852,378,144,57,9,1,262,51,189,0
1853,2593,6178,2807,123,8,135,2330,387,0
1854,131,1,1,1,1,1,0,0,0
1855,3381,11679,4153,499,81,825,3450,179,0
1856,34,118,11,56,19,59,34,765,0
1857,165,74,1,40,9,26,21,1097,0
1858,70,8,1,3,1,13,3,747,0
1859,1415,2674,1287,324,35,266,852,275,0
1860,3702,2426,1067,72,20,101,894,631,0
1861,26,188,60,77,50,107,52,332,0
1862,5646,32373,19643,181,9,901,10953,100,0
1863,96,50,14,1,1,1,22,30,0
1864,1628,666,91,93,6,109,227,3551,0
1865,16,3,3,1,1,1,1,0,0
1866,221,51,11,21,8,13,16,232,0
1867,195,158,53,142,14,66,60,890,0
1868,3,22,3,70,13,41,9,146,0
1869,6870,91,53,1,1,1,42,666,0
1870,647,223,50,18,1,21,85,1692,0
1871,4115,1718,373,44,15,42,690,1260,0
1872,15043,99021,50121,104,1,1931,28564,110,0
1873,1437,104,34,6,1,51,47,721,0
1874,1971,974,572,138,18,127,378,599,0
1875,3354,2585,1245,75,6,110,973,410,0
1876,10043,7556,3647,48,6,66,3166,229,0
1877,90405,163772,57290,4,1,16,61013,106,0
1878,5103,1503,681,55,1,719,568,2059,0
1879,7522,6150,3293,41,13,123,2536,358,0
1880,6734,6609,2971,283,8,207,2376,664,0
1881,70,8,1,3,1,13,3,747,0
1882,6734,6609,2971,283,8,207,2376,664,0
1883,14891,381595,1320,22,6,41,21964,192,0
1884,5729,1996,678,94,4,41,669,392,0
1885,417,88,59,4,1,4,40,791,0
1886,29,23,3,51,20,44,11,1924,0
1887,0,1,1,1,1,3,0,0,0
1888,932,619,186,1,1,1,229,803,0
1889,2641,1489,370,279,33,239,551,1274,0
1890,6820,2464,747,213,13,153,683,2358,0
1891,222,53,16,23,1,16,18,1394,0
1892,31,1,1,11,1,16,0,0,0
1893,8805,1104,266,16,1,11,454,960,0
1894,6737,522,136,35,11,28,219,2607,0
1895,9876,3895,2176,4,1,8,1706,100,0
1896,8,8,1,1,1,1,3,2050,0
1897,5187,4552,2938,302,1,211,1793,1590,0
1898,1069,312,95,127,11,170,126,3228,0
1899,0,4,1,3,1,11,1,1720,0
1900,400,72,26,18,3,8,28,863,0
1901,1069,312,95,127,11,170,126,3228,0
1902,31,1,1,11,1,16,0,0,0
1903,62,10,1,10,3,3,4,1548,0
1904,6109,9086,2113,120,76,128,3366,100,0
1905,16338,36193,8783,78,23,236,12453,476,0
1906,2794,772,240,125,26,126,307,1592,0
1907,44,41,7,16,8,18,15,1288,0
1908,16,1,1,1,1,1,0,0,0
1909,1279,1020,968,15,11,35,432,112,0
1910,1446,5,3,1,1,1,2,430,0
1911,44,41,7,16,8,18,15,1288,0
1912,228,905,258,57,11,52,369,184,0
1913,4115,1718,373,44,15,42,690,1260,0
1914,16294,17955,6856,45,13,158,6867,608,0
1915,95,37,3,14,1,11,15,3112,0
1916,826,1181,567,64,8,98,466,1052,0
1917,4,11,1,4,1,6,5,1054,0
1918,4115,1718,373,44,15,42,690,1260,0
1919,99,3,3,1,1,28,1,0,0
1920,14,1,1,3,1,3,0,0,0
1921,826,1181,567,64,8,98,466,1052,0
1922,3354,2585,1245,75,6,110,973,410,0
1923,655,343,213,13,6,14,157,856,0
1924,417,88,59,4,1,4,40,791,0
1925,4679,2869,378,67,1,85,758,1202,0
1926,14343,52373,10806,176,34,66,15102,96,0
1927,10,4,4,3,3,3,1,120,0
1928,3354,2585,1245,75,6,110,973,410,0
1929,126,37,7,43,4,33,16,2938,0
1930,1780,3882,138,259,3,176,804,2711,0
1931,6737,522,136,35,11,28,219,2607,0
1932,40,27,9,1,1,1,10,215,0
1933,222,53,16,23,1,16,18,1394,0
1934,461,15,7,11,11,25,7,2286,0
1935,1050,213,62,9,4,11,90,991,0
1936,5,3,1,6,6,6,1,10,0
1937,34,118,11,56,19,59,34,765,0
1938,55,12,3,14,4,6,5,560,0
1939,14343,52373,10806,176,34,66,15102,96,0
1940,2672,2268,721,38,20,31,887,687,0
1941,551,6319,4576,55,1,75,2603,38,0
1942,5103,1503,681,55,1,719,568,2059,0
1943,40,14,8,1,1,1,6,220,0
1944,6209,4933,2067,41,9,31,2021,760,0
1945,717,325,165,46,16,108,122,150,0
1946,5187,4552,2938,302,1,211,1793,1590,0
1947,608,745,347,1,1,33,226,734,0
1948,15043,99021,50121,104,1,1931,28564,110,0
1949,1437,104,34,6,1,51,47,721,0
1950,2672,2268,721,38,20,31,887,687,0
1951,1079,54,12,1,1,1,21,1098,0
1952,142,110,15,11,6,21,40,355,0
1953,13188,6515,3201,1,1,4,2760,1476,0
1954,3,22,3,70,13,41,9,146,0
1955,213,230,135,48,26,44,95,966,0
1956,213,96,3,1,1,1,42,268,0
1957,67,6,6,16,1,22,2,5,0
1958,59,3,3,1,1,1,1,0,0
1959,6694,3078,725,21,6,28,1093,707,0
1960,7,6,4,1,1,1,2,5,0
1961,1492,206779,56070,13,1,337,56196,9,0
1962,6820,2464,747,213,13,153,683,2358,0
1963,13838,1332,560,26,11,26,562,1352,0
1964,4,11,1,4,1,6,5,1054,0
1965,2794,772,240,125,26,126,307,1592,0
1966,90405,163772,57290,4,1,16,61013,106,0
1967,451,3,1,1,1,33,1,1300,0
1968,5245,2718,360,131,1,126,890,2942,0
1969,496,1914,627,1,1,1,599,152,0
1970,41,6,3,11,4,4,2,275,0
1971,43,27,9,6,3,8,12,221,0
1972,1664,388,142,75,8,50,168,3793,0
1973,655,343,213,13,6,14,157,856,0
1974,6734,6609,2971,283,8,207,2376,664,0
1975,67,121,40,18,1,18,52,5918,0
1976,119,11,3,3,3,6,5,606,0
1977,3,1,1,1,1,3,0,0,0
1978,826,1181,567,64,8,98,466,1052,0
1979,114,33,1,11,3,13,11,1156,0
1980,1437,104,34,6,1,51,47,721,0
1981,1061,646,215,223,6,275,271,1843,0
1982,195,178,40,29,9,34,69,1737,0
1983,1610,405,89,32,6,11,163,1320,0
1984,1781,5124,1439,46,18,51,1743,308,0
1985,32,13,4,11,3,8,4,0,0
1986,1062,4525,1400,134,30,136,1796,137,0
1987,1492,206779,56070,13,1,337,56196,9,0
1988,96,50,14,1,1,1,22,30,0
1989,15647,191298,145527,21,6,163,52580,31,0
1990,551,6319,4576,55,1,75,2603,38,0
1991,222,53,16,23,1,16,18,1394,0
1992,3456,2239,856,237,93,211,871,3328,0
1993,10406,24184,9815,139,1,330,8550,591,0
1994,165,74,1,40,9,26,21,1097,0
1995,26,188,60,77,50,107,52,332,0
1996,8742,8742,3476,45,1,350,2767,1057,0
1997,30622,16743,3884,293,73,177,6261,532,0
1998,278,396,39,15,1,13,116,640,0
1999,5259,1415,353,38,6,30,578,974,0
2000,1437,104,34,6,1,51,47,721,0
2001,6974,6518,1702,48,3,71,2335,596,0
2002,29876,45000,22066,270,126,291,16646,227,0
2003,1492,206779,56070,13,1,337,56196,9,0
2004,168,33,11,11,1,11,15,958,0
2005,15647,191298,145527,21,6,163,52580,31,0
2006,717,325,165,46,16,108,122,150,0
2007,457,111,28,152,25,70,36,1231,0
2008,6,6,3,8,3,8,2,15,0
2009,6,6,3,8,3,8,2,15,0
2010,316,192,99,1,1,1,66,556,0
2011,38425,127257,49353,218,73,167,23939,245,0
2012,147,210,40,75,3,85,76,1125,0
2013,3646,804,233,45,1,55,312,1994,0
2014,20,42,3,6,1,8,18,849,0
2015,45,5,1,3,1,6,2,2385,0
2016,2672,2268,721,38,20,31,887,687,0
2017,7919,1753,1005,31,16,44,679,471,0
2018,477,301,16,53,1,48,111,2242,0
2019,461,15,7,11,11,25,7,2286,0
2020,34,118,11,56,19,59,34,765,0
2021,551,6319,4576,55,1,75,2603,38,0
2022,40,27,9,1,1,1,10,215,0
2023,6096,4625,1353,3,3,3,1732,440,0
2024,3456,2239,856,237,93,211,871,3328,0
2025,103,10,1,1,1,4,4,178,0
2026,32,13,4,11,3,8,4,0,0
2027,4679,2869,378,67,1,85,758,1202,0
2028,195,158,53,142,14,66,60,890,0
2029,449,929,165,25,1,30,355,1026,0
2030,3702,2426,1067,72,20,101,894,631,0
2031,41582,33163,14019,83,66,224,12203,580,0
2032,477,301,16,53,1,48,111,2242,0
2033,195,158,53,142,14,66,60,890,0
2034,6,1,1,1,1,6,0,0,0
2035,70,8,1,3,1,13,3,747,0
2036,68,17,6,11,1,6,7,844,0
2037,16,22,5,1,1,4,10,919,0
2038,3831,1458,740,235,1,160,567,2765,0
2039,1415,2674,1287,324,35,266,852,275,0
2040,477,301,16,53,1,48,111,2242,0
2041,3646,804,233,45,1,55,312,1994,0
2042,52,109,24,40,11,26,32,669,0
2043,7870,481,64,4,4,4,207,299,0
2044,146,3,1,4,1,4,1,0,0
2045,8742,8742,3476,45,1,350,2767,1057,0
2046,5259,1415,353,38,6,30,578,974,0
2047,3,22,3,70,13,41,9,146,0
2048,62,8,3,36,34,106,3,73,0
2049,19561,57447,53115,143,4,148,3641,659,0
2050,15117,2660,543,131,3,137,928,1730,0
2051,95,1,1,1,1,4,0,0,0
2052,417,85,33,6,1,6,32,1457,0
2053,5245,2718,360,131,1,126,890,2942,0
2054,14343,52373,10806,176,34,66,15102,96,0
2055,1971,974,572,138,18,127,378,599,0
2056,242,6,3,1,1,4,2,0,0
2057,363,816,433,66,23,121,296,92,0
2058,648,140,13,50,1,38,41,4819,0
2059,9876,3895,2176,4,1,8,1706,100,0
2060,1356,15296,2829,768,54,1044,3307,501,0
2061,250,170,56,11,8,45,65,139,0
2062,4,20,8,26,6,23,8,161,0
2063,146,3,1,4,1,4,1,0,0
2064,31,1,1,11,1,16,0,0,0
2065,22243,6719,4749,4,1,37,2662,314,0
2066,16,1,1,1,1,1,0,0,0
2067,3,22,3,70,13,41,9,146,0
2068,1062,4525,1400,134,30,136,1796,137,0
2069,13109,3744,953,26,16,23,1539,535,0
2070,116,87,19,55,14,49,28,971,0
2071,6974,6518,1702,48,3,71,2335,596,0
2072,14891,381595,1320,22,6,41,21964,192,0
2073,41,6,3,11,4,4,2,275,0
2074,1609,1131,430,113,34,78,468,2528,0
2075,5646,32373,19643,181,9,901,10953,100,0
2076,15117,2660,543,131,3,137,928,1730,0
2077,7095,10059,4408,62,29,180,3999,391,0
2078,6666,449,51,23,6,23,170,3964,0
2079,13838,1332,560,26,11,26,562,1352,0
2080,11,125,1,31,1,28,30,536,0
2081,14,1,1,3,1,3,0,0,0
2082,2,1,1,1,1,3,0,0,0
2083,12680,135806,18831,272,131,183,35645,169,0
2084,187,67,14,45,13,38,29,792,0
2085,13675,14204,5736,28,9,90,4970,830,0
2086,26,188,60,77,50,107,52,332,0
2087,4428,4769,2012,67,1,80,1881,542,0
2088,6209,4933,2067,41,9,31,2021,760,0
2089,22232,1765,423,68,13,44,696,2343,0
2090,59,3,3,1,1,1,1,0,0
2091,7257,16954,3175,36,19,65,5210,136,0
2092,2266,636,170,112,1,66,206,1679,0
2093,62,10,1,10,3,3,4,1548,0
2094,2910,1388,502,36,3,38,542,1261,0
2095,2,1,1,1,1,3,0,0,0
2096,11,1,1,1,1,1,0,0,0
2097,1781,5124,1439,46,18,51,1743,308,0
2098,22670,4890,2114,9,4,8,1917,415,0
2099,2963,990,278,8,3,3,430,2417,0
2100,6870,91,53,1,1,1,42,666,0
2101,4,11,1,4,1,6,5,1054,0
2102,168,33,11,11,1,11,15,958,0
2103,32741,70686,37732,21,3,102,25313,113,0
2104,185,9,1,6,1,6,3,140,0
2105,221,5,1,8,1,9,2,1835,0
2106,3381,11679,4153,499,81,825,3450,179,0
2107,378,144,57,9,1,262,51,189,0
2108,32741,70686,37732,21,3,102,25313,113,0
2109,6,1,1,1,1,6,0,0,0
2110,195,158,53,142,14,66,60,890,0
2111,2641,1489,370,279,33,239,551,1274,0
2112,8,8,1,1,1,1,3,2050,0
2113,1062,4525,1400,134,30,136,1796,137,0
2114,378,144,57,9,1,262,51,189,0
2115,1610,405,89,32,6,11,163,1320,0
2116,8,3,1,3,1,6,1,920,0
2117,14343,52373,10806,176,34,66,15102,96,0
2118,4,1,1,1,1,3,0,0,0
2119,37,206,124,78,37,114,54,472,0
2120,2804,248,45,21,6,16,92,2583,0
2121,1446,5,3,1,1,1,2,430,0
2122,316,192,99,1,1,1,66,556,0
2123,165,74,1,40,9,26,21,1097,0
2124,0,1,1,1,1,4,0,0,0
2125,16572,15608,5618,43,11,36,5759,332,0
2126,0,4,1,3,1,11,1,1720,0
2127,90405,163772,57290,4,1,16,61013,106,0
2128,0,4,1,3,1,11,1,1720,0
2129,2963,990,278,8,3,3,430,2417,0
2130,16294,17955,6856,45,13,158,6867,608,0
2131,747,560,223,69,3,65,202,1525,0
2132,146,3,1,4,1,4,1,0,0
2133,1062,4525,1400,134,30,136,1796,137,0
2134,11,125,1,31,1,28,30,536,0
2135,2513,152,43,1,1,1,69,3212,0
2136,6974,6518,1702,48,3,71,2335,596,0
2137,208,16,3,10,3,3,7,734,0
2138,7095,10059,4408,62,29,180,3999,391,0
2139,151,52,12,23,6,38,14,945,0
2140,6,1,1,1,1,6,0,0,0
2141,192,151,33,8,3,6,68,506,0
2142,0,4,1,3,1,11,1,1720,0
2143,55,21,9,11,4,11,9,250,0
2144,3354,2585,1245,75,6,110,973,410,0
2145,15836,50886,62,8,3,11,18549,48,0
2146,105,4,4,1,1,1,1,90,0
2147,12,5,5,1,1,1,2,5,0
2148,6688,1316,235,74,1,74,568,2316,0
2149,10591,732,199,1,1,4,288,137,0
2150,14343,52373,10806,176,34,66,15102,96,0
2151,316,192,99,1,1,1,66,556,0
2152,7919,1753,1005,31,16,44,679,471,0
2153,316,192,99,1,1,1,66,556,0
2154,12138,8376,936,76,26,49,2597,213,0
2155,25928,28217,7875,26,6,24,9896,120,0
2156,52,534,267,23,1,23,229,166,0
2157,9,65,12,13,4,16,21,743,0
2158,363,816,433,66,23,121,296,92,0
2159,37,206,124,78,37,114,54,472,0
2160,747,560,223,69,3,65,202,1525,0
2161,17,4,1,1,1,1,1,10,0
2162,19715,1736362,523497,114,17,135,213718,53,0
2163,85858,25199,15300,1,1,3,10885,216,0
2164,2804,248,45,21,6,16,92,2583,0
2165,195,158,53,142,14,66,60,890,0
2166,17,4,1,1,1,1,1,10,0
2167,474,406,59,196,19,123,128,1074,0
2168,11,29,5,15,3,13,9,161,0
2169,17897,43364,6686,74,18,31,12252,164,0
2170,12226,868,185,1,1,1,390,365,0
2171,551,6319,4576,55,1,75,2603,38,0
2172,70,8,1,3,1,13,3,747,0
2173,13838,1332,560,26,11,26,562,1352,0
2174,5729,1996,678,94,4,41,669,392,0
2175,3680,1656,891,52,24,72,682,830,0
2176,7870,481,64,4,4,4,207,299,0
2177,942,1400,778,21,1,194,466,300,0
2178,70,8,1,3,1,13,3,747,0
2179,3702,2426,1067,72,20,101,894,631,0
2180,32741,70686,37732,21,3,102,25313,113,0
2181,43590,124732,95970,53,14,83,46906,73,0
2182,165,24,12,1,1,1,9,188,0
2183,228,905,258,57,11,52,369,184,0
2184,103,171,27,59,6,36,61,794,0
2185,3680,1656,891,52,24,72,682,830,0
2186,16328,3465,858,68,13,76,1323,2681,0
2187,8,3,3,1,1,16,1,490,0
2188,67,6,6,16,1,22,2,5,0
2189,15143,68815,50136,227,24,184,23958,213,0
2190,449,929,165,25,1,30,355,1026,0
2191,96,50,14,1,1,1,22,30,0
2192,16572,15608,5618,43,11,36,5759,332,0
2193,7257,16954,3175,36,19,65,5210,136,0
2194,5,16,3,16,3,11,6,285,0
2195,43590,124732,95970,53,14,83,46906,73,0
2196,26,78,19,31,4,18,29,941,0
2197,7919,1753,1005,31,16,44,679,471,0
2198,14891,381595,1320,22,6,41,21964,192,0
2199,7870,481,64,4,4,4,207,299,0
2200,5245,2718,360,131,1,126,890,2942,0
2201,22232,1765,423,68,13,44,696,2343,0
2202,608,745,347,1,1,33,226,734,0
2203,192,151,33,8,3,6,68,506,0
2204,41,6,3,11,4,4,2,275,0
2205,3,5,1,1,1,1,1,80,0
2206,22729,3498,1071,6,1,24,1359,557,0
2207,9950,1898,673,113,26,109,791,1855,0
2208,34,118,11,56,19,59,34,765,0
2209,172,29,5,1,1,1,13,1222,0
2210,14343,52373,10806,176,34,66,15102,96,0
2211,8,8,1,1,1,1,3,2050,0
2212,871,665,92,1,1,1,255,2310,0
2213,1948,488,140,122,1,90,190,1537,0
2214,16,1,1,1,1,1,0,0,0
2215,2597,1153,228,169,21,107,441,2581,0
2216,747,560,223,69,3,65,202,1525,0
2217,461,15,7,11,11,25,7,2286,0
2218,6734,6609,2971,283,8,207,2376,664,0
2219,2725,41,20,1,1,1,20,108,0
2220,1356,15296,2829,768,54,1044,3307,501,0
2221,34,118,11,56,19,59,34,765,0
2222,40,27,9,1,1,1,10,215,0
2223,19715,1736362,523497,114,17,135,213718,53,0
2224,16,22,5,1,1,4,10,919,0
2225,4,11,1,4,1,6,5,1054,0
2226,2513,152,43,1,1,1,69,3212,0
2227,6,1,1,1,1,6,0,0,0
2228,12138,8376,936,76,26,49,2597,213,0
2229,10043,7556,3647,48,6,66,3166,229,0
2230,29876,45000,22066,270,126,291,16646,227,0
2231,13675,14204,5736,28,9,90,4970,830,0
2232,3354,2585,1245,75,6,110,973,410,0
2233,8,3,3,1,1,16,1,490,0
2234,6737,522,136,35,11,28,219,2607,0
2235,2910,1388,502,36,3,38,542,1261,0
2236,1279,1020,968,15,11,35,432,112,0
2237,15,3,3,1,1,1,1,10,0
2238,2513,152,43,1,1,1,69,3212,0
2239,195,158,53,142,14,66,60,890,0
2240,59,3,3,1,1,1,1,0,0
2241,1061,646,215,223,6,275,271,1843,0
2242,90405,163772,57290,4,1,16,61013,106,0
2243,1492,206779,56070,13,1,337,56196,9,0
2244,3456,2239,856,237,93,211,871,3328,0
2245,44,6,1,1,1,6,2,8360,0
2246,19561,57447,53115,143,4,148,3641,659,0
2247,158,9,5,21,4,14,4,160,0
2248,12138,8376,936,76,26,49,2597,213,0
2249,90405,163772,57290,4,1,16,61013,106,0
2250,6,39,6,48,9,30,8,2106,0
2251,3,4,1,4,4,4,1,0,0
2252,826,1181,567,64,8,98,466,1052,0
2253,378,144,57,9,1,262,51,189,0
2254,30622,16743,3884,293,73,177,6261,532,0
2255,44,41,7,16,8,18,15,1288,0
2256,105,4,4,1,1,1,1,90,0
2257,14,1,1,1,1,1,0,0,0
2258,477,301,16,53,1,48,111,2242,0
2259,13838,1332,560,26,11,26,562,1352,0
2260,10873,2677,944,110,14,112,1063,2298,0
2261,62,10,1,10,3,3,4,1548,0
2262,5,16,3,16,3,11,6,285,0
2263,447,29,9,1,1,6,9,195,0
2264,10406,24184,9815,139,1,330,8550,591,0
2265,29179,291470,180827,1,1,45,88154,41,0
2266,1780,3882,138,259,3,176,804,2711,0
2267,8,3,1,3,1,6,1,920,0
2268,32741,70686,37732,21,3,102,25313,113,0
2269,121,26,12,13,6,13,11,915,0
2270,11,125,1,31,1,28,30,536,0
2271,26,188,60,77,50,107,52,332,0
2272,165,74,1,40,9,26,21,1097,0
2273,67,6,6,16,1,22,2,5,0
2274,278,5729,3903,276,72,321,1762,235,0
2275,181,216,36,68,11,46,85,485,0
2276,221,51,11,21,8,13,16,232,0
2277,549144,11452190,4358259,95,35,80,920838,84,0
2278,11946,67824,29445,130,28,662,21678,69,0
2279,7149,890,104,142,8,81,322,2501,0
2280,5646,32373,19643,181,9,901,10953,100,0
2281,16338,36193,8783,78,23,236,12453,476,0
2282,32741,70686,37732,21,3,102,25313,113,0
2283,37,206,124,78,37,114,54,472,0
2284,298,304,78,31,1,43,121,1580,0
2285,165,74,1,40,9,26,21,1097,0
2286,6190,567,119,1,1,58,211,549,0
2287,883,1284,239,66,3,123,228,728,0
2288,551,6319,4576,55,1,75,2603,38,0
2289,9392,1463,845,13,1,40,600,548,0
2290,449,929,165,25,1,30,355,1026,0
2291,278,5729,3903,276,72,321,1762,235,0
2292,2,1,1,1,1,3,0,0,0
2293,19561,57447,53115,143,4,148,3641,659,0
2294,62,10,1,10,3,3,4,1548,0
2295,19561,57447,53115,143,4,148,3641,659,0
2296,0,4,1,3,1,11,1,1720,0
2297,1590,2996,802,1,1,1,791,1223,0
2298,2,77,3,13,1,28,6,20,0
2299,4,11,1,4,1,6,5,1054,0
2300,7,3,1,1,1,1,1,240,0
2301,213,230,135,48,26,44,95,966,0
2302,101,122,26,102,13,98,44,657,0
2303,5259,1415,353,38,6,30,578,974,0
2304,15143,68815,50136,227,24,184,23958,213,0
2305,85,28,14,26,6,38,11,94,0
2306,461,15,7,11,11,25,7,2286,0
2307,3831,1458,740,235,1,160,567,2765,0
2308,16572,15608,5618,43,11,36,5759,332,0
2309,2513,152,43,1,1,1,69,3212,0
2310,3,22,3,70,13,41,9,146,0
2311,3456,2239,856,237,93,211,871,3328,0
2312,16,22,5,1,1,4,10,919,0
2313,112,23,7,9,1,14,11,133,0
2314,3,4,1,4,4,4,1,0,0
2315,105,4,4,1,1,1,1,90,0
2316,1062,4525,1400,134,30,136,1796,137,0
2317,4074,551,234,23,1,72,239,2172,0
2318,165,24,12,1,1,1,9,188,0
2319,29179,291470,180827,1,1,45,88154,41,0
2320,25928,28217,7875,26,6,24,9896,120,0
2321,32,13,4,11,3,8,4,0,0
2322,37,206,124,78,37,114,54,472,0
2323,9876,3895,2176,4,1,8,1706,100,0
2324,10873,2677,944,110,14,112,1063,2298,0
2325,33,12,1,6,1,6,2,100,0
2326,33,12,1,6,1,6,2,100,0
2327,7,6,4,1,1,1,2,5,0
2328,96,50,14,1,1,1,22,30,0
2329,165,24,12,1,1,1,9,188,0
2330,16,13,1,6,1,6,5,986,0
2331,3831,1458,740,235,1,160,567,2765,0
2332,1610,405,89,32,6,11,163,1320,0
2333,7522,6150,3293,41,13,123,2536,358,0
2334,363,816,433,66,23,121,296,92,0
2335,15647,191298,145527,21,6,163,52580,31,0
2336,5646,32373,19643,181,9,901,10953,100,0
2337,16572,15608,5618,43,11,36,5759,332,0
2338,496,1914,627,1,1,1,599,152,0
2339,2794,772,240,125,26,126,307,1592,0
2340,316,192,99,1,1,1,66,556,0
2341,20,42,3,6,1,8,18,849,0
2342,22,129,62,32,15,33,35,433,0
2343,12138,8376,936,76,26,49,2597,213,0
2344,15143,68815,50136,227,24,184,23958,213,0
2345,192,151,33,8,3,6,68,506,0
2346,1437,104,34,6,1,51,47,721,0
2347,12226,868,185,1,1,1,390,365,0
2348,59,3,3,1,1,1,1,0,0
2349,363,816,433,66,23,121,296,92,0
2350,15836,50886,62,8,3,11,18549,48,0
2351,43,20,14,1,1,364,6,47,0
2352,959,74,21,16,6,13,29,2055,0
2353,30622,16743,3884,293,73,177,6261,532,0
2354,192,151,33,8,3,6,68,506,0
2355,40,27,9,1,1,1,10,215,0
2356,69,6,1,3,1,3,2,145,0
2357,3417,193,73,1,1,1,60,448,0
2358,14765,21497,1404,11,1,23,6986,449,0
2359,6734,6609,2971,283,8,207,2376,664,0
2360,22670,4890,2114,9,4,8,1917,415,0
2361,13252,876,287,67,26,50,351,584,0
2362,5439,10432,5582,206,14,222,3048,600,0
2363,44,41,7,16,8,18,15,1288,0
2364,2794,772,240,125,26,126,307,1592,0
2365,14765,21497,1404,11,1,23,6986,449,0
2366,7095,10059,4408,62,29,180,3999,391,0
2367,222,53,16,23,1,16,18,1394,0
2368,417,85,33,6,1,6,32,1457,0
2369,2597,1153,228,169,21,107,441,2581,0
2370,2,1,1,1,1,1,0,0,0
2371,2,77,3,13,1,28,6,20,0
2372,67,121,40,18,1,18,52,5918,0
2373,262,102,27,29,1,34,45,1317,0
2374,29876,45000,22066,270,126,291,16646,227,0
2375,0,4,1,3,1,11,1,1720,0
2376,3,6,1,1,1,4,2,1665,0
2377,408,56,29,13,11,15,22,4900,0
2378,9950,1898,673,113,26,109,791,1855,0
2379,52,124,71,21,6,47,50,1171,0
2380,9876,3895,2176,4,1,8,1706,100,0
2381,35,20,8,42,1,30,8,382,0
2382,1,6,1,1,1,1,2,335,0
2383,1437,104,34,6,1,51,47,721,0
2384,3,4,1,4,4,4,1,0,0
2385,10591,732,199,1,1,4,288,137,0
2386,26,188,60,77,50,107,52,332,0
2387,5729,1996,678,94,4,41,669,392,0
2388,5,14,1,1,1,6,5,966,0
2389,5259,1415,353,38,6,30,578,974,0
2390,1062,4525,1400,134,30,136,1796,137,0
2391,970,17295,7637,308,86,933,4067,123,0
2392,3,6,1,1,1,4,2,1665,0
2393,6974,6518,1702,48,3,71,2335,596,0
2394,16328,3465,858,68,13,76,1323,2681,0
2395,3137,480,251,1,1,1,203,301,0
2396,826,1181,567,64,8,98,466,1052,0
2397,16,22,5,1,1,4,10,919,0
2398,14,1,1,3,1,3,0,0,0
2399,187,67,14,45,13,38,29,792,0
2400,470,283,59,74,11,61,113,1001,0
2401,44,101,18,18,4,28,39,320,0
2402,6820,2464,747,213,13,153,683,2358,0
2403,717,325,165,46,16,108,122,150,0
2404,7594,657584,320541,16,1,26,187674,60,0
2405,40,27,9,1,1,1,10,215,0
2406,44,41,7,16,8,18,15,1288,0
2407,152,20,1,9,6,6,8,1360,0
2408,9392,1463,845,13,1,40,600,548,0
2409,15647,191298,145527,21,6,163,52580,31,0
2410,9,8,3,1,1,1,3,27,0
2411,316,192,99,1,1,1,66,556,0
2412,19474,34543,24372,1,1,4,15030,222,0
2413,13675,14204,5736,28,9,90,4970,830,0
2414,40506,165326,98164,63,43,119,61842,103,0
2415,5187,4552,2938,302,1,211,1793,1590,0
2416,43,20,14,1,1,364,6,47,0
2417,29179,291470,180827,1,1,45,88154,41,0
2418,75,402,315,516,1,426,147,100,0
2419,1781,5124,1439,46,18,51,1743,308,0
2420,4626,7107,3102,97,51,170,2689,396,0
2421,6870,91,53,1,1,1,42,666,0
2422,2597,1153,228,169,21,107,441,2581,0
2423,5610,3858,1722,84,51,108,1330,616,0
2424,16572,15608,5618,43,11,36,5759,332,0
2425,10873,2677,944,110,14,112,1063,2298,0
2426,7919,1753,1005,31,16,44,679,471,0
2427,43590,124732,95970,53,14,83,46906,73,0
2428,192,151,33,8,3,6,68,506,0
2429,15,17,1,4,4,51,4,60,0
2430,400,72,26,18,3,8,28,863,0
2431,168,33,11,11,1,11,15,958,0
2432,9,8,3,1,1,1,3,27,0
2433,6248,6604,1455,50,23,63,2302,606,0
2434,6870,91,53,1,1,1,42,666,0
2435,151,52,12,23,6,38,14,945,0
2436,1971,974,572,138,18,127,378,599,0
2437,74,29,8,1,1,1,13,370,0
2438,119,11,3,3,3,6,5,606,0
2439,1,35,3,8,3,13,12,68,0
2440,1689,154,40,82,3,70,66,755,0
2441,9950,1898,673,113,26,109,791,1855,0
2442,29179,291470,180827,1,1,45,88154,41,0
2443,213,230,135,48,26,44,95,966,0
2444,5646,32373,19643,181,9,901,10953,100,0
2445,7095,10059,4408,62,29,180,3999,391,0
2446,195,158,53,142,14,66,60,890,0
2447,16294,17955,6856,45,13,158,6867,608,0
2448,496,1914,627,1,1,1,599,152,0
2449,12138,8376,936,76,26,49,2597,213,0
2450,479,676,269,18,3,48,230,2097,0
2451,67,6,6,16,1,22,2,5,0
2452,1437,104,34,6,1,51,47,721,0
2453,2963,990,278,8,3,3,430,2417,0
2454,33,12,1,6,1,6,2,100,0
2455,16338,36193,8783,78,23,236,12453,476,0
2456,826,1181,567,64,8,98,466,1052,0
2457,4115,1718,373,44,15,42,690,1260,0
2458,15,3,3,1,1,1,1,10,0
2459,3,4,1,4,4,4,1,0,0
2460,1492,206779,56070,13,1,337,56196,9,0
2461,717,325,165,46,16,108,122,150,0
2462,12,6,4,4,1,4,2,505,0
2463,37,206,124,78,37,114,54,472,0
2464,2963,990,278,8,3,3,430,2417,0
2465,1610,405,89,32,6,11,163,1320,0
2466,2,1,1,1,1,3,0,0,0
2467,213,96,3,1,1,1,42,268,0
2468,1356,15296,2829,768,54,1044,3307,501,0
2469,7594,657584,320541,16,1,26,187674,60,0
2470,3166,4891,758,1,1,1,764,3092,0
2471,47559,34883,5666,215,57,157,14107,417,0
2472,85,28,14,26,6,38,11,94,0
2473,461,15,7,11,11,25,7,2286,0
2474,9876,3895,2176,4,1,8,1706,100,0
2475,43590,124732,95970,53,14,83,46906,73,0
2476,3417,193,73,1,1,1,60,448,0
2477,747,560,223,69,3,65,202,1525,0
2478,20,42,3,6,1,8,18,849,0
2479,9876,3895,2176,4,1,8,1706,100,0
2480,12,6,4,4,1,4,2,505,0
2481,3,22,3,70,13,41,9,146,0
2482,13252,876,287,67,26,50,351,584,0
2483,1689,154,40,82,3,70,66,755,0
2484,4,11,1,4,1,6,5,1054,0
2485,26319,17742,8309,1,1,1,7321,265,0
2486,151,164,53,6,1,9,65,188,0
2487,9,3,3,1,1,1,1,770,0
2488,6,40,19,21,9,23,15,577,0
2489,9876,3895,2176,4,1,8,1706,100,0
2490,10591,732,199,1,1,4,288,137,0
2491,3381,11679,4153,499,81,825,3450,179,0
2492,165,74,1,40,9,26,21,1097,0
2493,34,118,11,56,19,59,34,765,0
2494,192,151,33,8,3,6,68,506,0
2495,15836,50886,62,8,3,11,18549,48,0
2496,970,17295,7637,308,86,933,4067,123,0
2497,84,525,72,35,4,50,221,454,0
2498,105,4,4,1,1,1,1,90,0
2499,8613,39332,15744,3,1,127,10560,430,0
2500,31,1,1,11,1,16,0,0,0
2501,6870,91,53,1,1,1,42,666,0
2502,867,485,132,179,18,139,168,1847,0
2503,603,12533,9801,130,24,1005,4801,79,0
2504,29179,291470,180827,1,1,45,88154,41,0
2505,6820,2464,747,213,13,153,683,2358,0
2506,146,3,1,4,1,4,1,0,0
2507,479,676,269,18,3,48,230,2097,0
2508,41582,33163,14019,83,66,224,12203,580,0
2509,22,129,62,32,15,33,35,433,0
2510,6688,1316,235,74,1,74,568,2316,0
2511,242,6,3,1,1,4,2,0,0
2512,192,151,33,8,3,6,68,506,0
2513,16328,3465,858,68,13,76,1323,2681,0
2514,3646,804,233,45,1,55,312,1994,0
2515,12226,868,185,1,1,1,390,365,0
2516,1492,206779,56070,13,1,337,56196,9,0
2517,181,216,36,68,11,46,85,485,0
2518,6109,9086,2113,120,76,128,3366,100,0
2519,2266,636,170,112,1,66,206,1679,0
2520,9,65,12,13,4,16,21,743,0
2521,2963,990,278,8,3,3,430,2417,0
2522,82,87,26,3,1,26,31,295,0
2523,3831,1458,740,235,1,160,567,2765,0
2524,449,929,165,25,1,30,355,1026,0
2525,48,33,9,11,1,18,14,1811,0
2526,6737,522,136,35,11,28,219,2607,0
2527,30758,103572,52160,1,1,1,32871,100,0
2528,6737,522,136,35,11,28,219,2607,0
2529,6,39,6,48,9,30,8,2106,0
2530,461,15,7,11,11,25,7,2286,0
2531,278,5729,3903,276,72,321,1762,235,0
2532,15117,2660,543,131,3,137,928,1730,0
2533,655,343,213,13,6,14,157,856,0
2534,31,1,1,11,1,16,0,0,0
2535,22729,3498,1071,6,1,24,1359,557,0
2536,6190,567,119,1,1,58,211,549,0
2537,10043,7556,3647,48,6,66,3166,229,0
2538,3381,11679,4153,499,81,825,3450,179,0
2539,15836,50886,62,8,3,11,18549,48,0
2540,655,343,213,13,6,14,157,856,0
2541,970,17295,7637,308,86,933,4067,123,0
2542,3354,2585,1245,75,6,110,973,410,0
2543,5259,1415,353,38,6,30,578,974,0
2544,44,6,1,1,1,6,2,8360,0
2545,12226,868,185,1,1,1,390,365,0
2546,479,676,269,18,3,48,230,2097,0
2547,4074,551,234,23,1,72,239,2172,0
2548,6209,4933,2067,41,9,31,2021,760,0
2549,3354,2585,1245,75,6,110,973,410,0
2550,670,985,210,256,8,234,350,834,0
2551,16,22,5,1,1,4,10,919,0
2552,16294,17955,6856,45,13,158,6867,608,0
2553,1971,974,572,138,18,127,378,599,0
2554,39725,14044,4311,26,1,56,5748,759,0
2555,4074,551,234,23,1,72,239,2172,0
2556,3417,193,73,1,1,1,60,448,0
2557,16572,15608,5618,43,11,36,5759,332,0
2558,0,8,1,4,4,4,3,563,0
2559,278,5729,3903,276,72,321,1762,235,0
2560,165,24,12,1,1,1,9,188,0
2561,228,905,258,57,11,52,369,184,0
2562,14,10,1,1,1,1,4,850,0
2563,1689,154,40,82,3,70,66,755,0
2564,9,8,3,1,1,1,3,27,0
2565,474,406,59,196,19,123,128,1074,0
2566,3137,480,251,1,1,1,203,301,0
2567,4626,7107,3102,97,51,170,2689,396,0
2568,308,32,1,1,1,1,12,900,0
2569,3,4,1,4,4,4,1,0,0
2570,41582,33163,14019,83,66,224,12203,580,0
2571,3702,2426,1067,72,20,101,894,631,0
2572,161,36,9,14,4,16,15,1142,0
2573,105,385,96,146,19,118,128,671,0
2574,30622,16743,3884,293,73,177,6261,532,0
2575,3831,1458,740,235,1,160,567,2765,0
2576,608,745,347,1,1,33,226,734,0
2577,10591,732,199,1,1,4,288,137,0
2578,6974,6518,1702,48,3,71,2335,596,0
2579,213,230,135,48,26,44,95,966,0
2580,103,171,27,59,6,36,61,794,0
2581,60,9,3,1,1,1,3,287,0
2582,13838,1332,560,26,11,26,562,1352,0
2583,6,6,3,8,3,8,2,15,0
2584,14343,52373,10806,176,34,66,15102,96,0
2585,826,1181,567,64,8,98,466,1052,0
2586,20006,9366,2061,413,6,428,3691,692,0
2587,3381,11679,4153,499,81,825,3450,179,0
2588,3166,4891,758,1,1,1,764,3092,0
2589,213,230,135,48,26,44,95,966,0
2590,8742,8742,3476,45,1,350,2767,1057,0
2591,5,14,1,1,1,6,5,966,0
2592,20057,9677,5794,45,8,62,4027,576,0
2593,12680,135806,18831,272,131,183,35645,169,0
2594,32,13,4,11,3,8,4,0,0
2595,24,31,5,11,3,8,14,706,0
2596,113,3,1,4,1,9,1,0,0
2597,33,12,1,6,1,6,2,100,0
2598,551,6319,4576,55,1,75,2603,38,0
2599,890,2011,1363,1,1,1,728,246,0
2600,655,343,213,13,6,14,157,856,0
2601,37,206,124,78,37,114,54,472,0
2602,59,3,3,1,1,1,1,0,0
2603,1971,974,572,138,18,127,378,599,0
2604,970,17295,7637,308,86,933,4067,123,0
2605,449,929,165,25,1,30,355,1026,0
2606,496,1914,627,1,1,1,599,152,0
2607,6688,1316,235,74,1,74,568,2316,0
2608,747,560,223,69,3,65,202,1525,0
2609,96,50,14,1,1,1,22,30,0
2610,43,20,14,1,1,364,6,47,0
2611,1,35,3,8,3,13,12,68,0
2612,85,28,14,26,6,38,11,94,0
2613,12,6,4,4,1,4,2,505,0
2614,144,81,77,11,11,425,12,1216,0
2615,670,985,210,256,8,234,350,834,0
2616,75,402,315,516,1,426,147,100,0
2617,959,74,21,16,6,13,29,2055,0
2618,4115,1718,373,44,15,42,690,1260,0
2619,7371,2970,1358,150,48,83,1201,872,0
2620,2963,990,278,8,3,3,430,2417,0
2621,528,54,26,16,4,13,23,375,0
2622,14765,21497,1404,11,1,23,6986,449,0
2623,32545,26051,15129,1,1,6,11065,162,0
2624,316,192,99,1,1,1,66,556,0
2625,4,11,1,4,1,6,5,1054,0
2626,1948,488,140,122,1,90,190,1537,0
2627,190,8,1,1,1,3,3,11210,0
2628,126,344,45,151,6,125,107,861,0
2629,62,10,1,10,3,3,4,1548,0
2630,3381,11679,4153,499,81,825,3450,179,0
2631,3680,1656,891,52,24,72,682,830,0
2632,41,6,3,11,4,4,2,275,0
2633,20006,9366,2061,413,6,428,3691,692,0
2634,6666,449,51,23,6,23,170,3964,0
2635,14,1,1,3,1,3,0,0,0
2636,8742,8742,3476,45,1,350,2767,1057,0
2637,87,16,10,16,4,9,7,690,0
2638,133,5,3,3,1,3,2,1830,0
2639,1745,22,15,1,1,1,9,530,0
2640,69,6,1,3,1,3,2,145,0
2641,85858,25199,15300,1,1,3,10885,216,0
2642,14,1,1,3,1,3,0,0,0
2643,59,20,14,3,3,3,8,199,0
2644,4475,1822,780,116,36,96,688,829,0
2645,3,4,1,4,4,4,1,0,0
2646,19561,57447,53115,143,4,148,3641,659,0
2647,25928,28217,7875,26,6,24,9896,120,0
2648,222,53,16,23,1,16,18,1394,0
2649,69,6,1,3,1,3,2,145,0
2650,14,10,1,1,1,1,4,850,0
2651,37,206,124,78,37,114,54,472,0
2652,15143,68815,50136,227,24,184,23958,213,0
2653,8742,8742,3476,45,1,350,2767,1057,0
2654,39725,14044,4311,26,1,56,5748,759,0
2655,9,8,3,1,1,1,3,27,0
2656,9,65,12,13,4,16,21,743,0
2657,70,8,1,3,1,13,3,747,0
2658,1610,405,89,32,6,11,163,1320,0
2659,151,52,12,23,6,38,14,945,0
2660,6870,91,53,1,1,1,42,666,0
2661,2672,2268,721,38,20,31,887,687,0
2662,2794,772,240,125,26,126,307,1592,0
2663,17897,43364,6686,74,18,31,12252,164,0
2664,0,1,1,6,1,3,0,0,0
2665,221,51,11,21,8,13,16,232,0
2666,717,325,165,46,16,108,122,150,0
2667,3381,11679,4153,499,81,825,3450,179,0
2668,16338,36193,8783,78,23,236,12453,476,0
2669,1069,312,95,127,11,170,126,3228,0
2670,41582,33163,14019,83,66,224,12203,580,0
2671,603,12533,9801,130,24,1005,4801,79,0
2672,103,171,27,59,6,36,61,794,0
2673,30622,16743,3884,293,73,177,6261,532,0
2674,38,42,20,4,4,6,17,512,0
2675,124,92,21,1,1,4,39,307,0
2676,496,1914,627,1,1,1,599,152,0
2677,15043,99021,50121,104,1,1931,28564,110,0
2678,52,124,71,21,6,47,50,1171,0
2679,2,1,1,1,1,3,0,0,0
2680,59,3,3,1,1,1,1,0,0
2681,1069,312,95,127,11,170,126,3228,0
2682,8,3,3,1,1,16,1,490,0
2683,1948,488,140,122,1,90,190,1537,0
2684,75,402,315,516,1,426,147,100,0
2685,1,6,1,1,1,1,2,335,0
2686,3702,2426,1067,72,20,101,894,631,0
2687,1781,5124,1439,46,18,51,1743,308,0
2688,168,33,11,11,1,11,15,958,0
2689,4115,1718,373,44,15,42,690,1260,0
2690,47,41,26,1,1,11,17,50,0
2691,62,8,3,36,34,106,3,73,0
2692,9950,1898,673,113,26,109,791,1855,0
2693,4994,57388,37382,158,36,322,20589,126,0
2694,551,6319,4576,55,1,75,2603,38,0
2695,6688,1316,235,74,1,74,568,2316,0
2696,2804,248,45,21,6,16,92,2583,0
2697,32,1,1,1,1,4,0,0,0
2698,13675,14204,5736,28,9,90,4970,830,0
2699,19715,1736362,523497,114,17,135,213718,53,0
2700,228,905,258,57,11,52,369,184,0
2701,608,745,347,1,1,33,226,734,0
2702,20057,9677,5794,45,8,62,4027,576,0
2703,20057,9677,5794,45,8,62,4027,576,0
2704,4475,1822,780,116,36,96,688,829,0
2705,6,39,6,48,9,30,8,2106,0
2706,59,3,3,1,1,1,1,0,0
2707,40,27,9,1,1,1,10,215,0
2708,90405,163772,57290,4,1,16,61013,106,0
2709,808,75,28,1,1,1,30,460,0
2710,551,6319,4576,55,1,75,2603,38,0
2711,6109,9086,2113,120,76,128,3366,100,0
2712,8613,39332,15744,3,1,127,10560,430,0
2713,10406,24184,9815,139,1,330,8550,591,0
2714,3,6,1,1,1,4,2,1665,0
2715,5187,4552,2938,302,1,211,1793,1590,0
2716,8,8,1,1,1,1,3,2050,0
2717,1,35,3,8,3,13,12,68,0
2718,17897,43364,6686,74,18,31,12252,164,0
2719,213,230,135,48,26,44,95,966,0
2720,131,1,1,1,1,1,0,0,0
2721,15043,99021,50121,104,1,1931,28564,110,0
2722,8742,8742,3476,45,1,350,2767,1057,0
2723,470,283,59,74,11,61,113,1001,0
2724,6974,6518,1702,48,3,71,2335,596,0
2725,221,51,11,21,8,13,16,232,0
2726,7870,481,64,4,4,4,207,299,0
2727,168,33,11,11,1,11,15,958,0
2728,70,8,1,3,1,13,3,747,0
2729,7,6,4,1,1,1,2,5,0
2730,5187,4552,2938,302,1,211,1793,1590,0
2731,7,6,4,1,1,1,2,5,0
2732,26,6,1,8,1,11,2,5,0
2733,187,67,14,45,13,38,29,792,0
2734,16328,3465,858,68,13,76,1323,2681,0
2735,15143,68815,50136,227,24,184,23958,213,0
2736,17,4,1,1,1,1,1,10,0
2737,1689,154,40,82,3,70,66,755,0
2738,9,8,3,1,1,1,3,27,0
2739,970,17295,7637,308,86,933,4067,123,0
2740,1274,12,3,1,1,1,5,102,0
2741,2,1,1,1,1,3,0,0,0
2742,1610,405,89,32,6,11,163,1320,0
2743,17,4,1,1,1,1,1,10,0
2744,1062,4525,1400,134,30,136,1796,137,0
2745,674,22,13,1,1,1,9,234,0
2746,6737,522,136,35,11,28,219,2607,0
2747,13109,3744,953,26,16,23,1539,535,0
2748,6734,6609,2971,283,8,207,2376,664,0
2749,19715,1736362,523497,114,17,135,213718,53,0
2750,26,188,60,77,50,107,52,332,0
2751,222,53,16,23,1,16,18,1394,0
2752,3,6,1,1,1,4,2,1665,0
2753,16338,36193,8783,78,23,236,12453,476,0
2754,67,121,40,18,1,18,52,5918,0
2755,10873,2677,944,110,14,112,1063,2298,0
2756,69,6,1,3,1,3,2,145,0
2757,1781,5124,1439,46,18,51,1743,308,0
2758,12680,135806,18831,272,131,183,35645,169,0
2759,90,24,8,6,1,6,10,1314,0
2760,709,309,117,43,11,43,127,649,0
2761,62,10,1,10,3,3,4,1548,0
2762,4115,1718,373,44,15,42,690,1260,0
2763,932,619,186,1,1,1,229,803,0
2764,1279,1020,968,15,11,35,432,112,0
2765,400,72,26,18,3,8,28,863,0
2766,151,52,12,23,6,38,14,945,0
2767,608,745,347,1,1,33,226,734,0
2768,474,406,59,196,19,123,128,1074,0
2769,551,6319,4576,55,1,75,2603,38,0
2770,655,343,213,13,6,14,157,856,0
2771,717,325,165,46,16,108,122,150,0
2772,131,1,1,1,1,1,0,0,0
2773,96,50,14,1,1,1,22,30,0
2774,1664,388,142,75,8,50,168,3793,0
2775,7371,2970,1358,150,48,83,1201,872,0
2776,6694,3078,725,21,6,28,1093,707,0
2777,1664,388,142,75,8,50,168,3793,0
2778,31,1,1,11,1,16,0,0,0
2779,213,230,135,48,26,44,95,966,0
2780,477,301,16,53,1,48,111,2242,0
2781,7522,6150,3293,41,13,123,2536,358,0
2782,9,8,3,1,1,1,3,27,0
2783,195,158,53,142,14,66,60,890,0
2784,30622,16743,3884,293,73,177,6261,532,0
2785,13838,1332,560,26,11,26,562,1352,0
2786,1437,104,34,6,1,51,47,721,0
2787,41,8,3,3,1,8,3,437,0
2788,213,522,232,4,1,68,195,117,0
2789,603,12533,9801,130,24,1005,4801,79,0
2790,20,42,3,6,1,8,18,849,0
2791,890,2011,1363,1,1,1,728,246,0
2792,13,24,1,1,1,6,8,271,0
2793,4074,551,234,23,1,72,239,2172,0
2794,7,6,4,1,1,1,2,5,0
2795,58670,41812,22000,184,139,318,13291,244,0
2796,12226,868,185,1,1,1,390,365,0
2797,13109,3744,953,26,16,23,1539,535,0
2798,3646,804,233,45,1,55,312,1994,0
2799,286,207,77,52,16,52,87,1513,0
2800,959,74,21,16,6,13,29,2055,0
2801,67,6,6,16,1,22,2,5,0
2802,7149,890,104,142,8,81,322,2501,0
2803,5439,10432,5582,206,14,222,3048,600,0
2804,168,88,14,36,6,26,36,3205,0
2805,412,115,39,47,8,40,46,947,0
2806,40506,165326,98164,63,43,119,61842,103,0
2807,13675,14204,5736,28,9,90,4970,830,0
2808,447,29,9,1,1,6,9,195,0
2809,165,24,12,1,1,1,9,188,0
2810,70,8,1,3,1,13,3,747,0
2811,13838,1332,560,26,11,26,562,1352,0
2812,6737,522,136,35,11,28,219,2607,0
2813,4475,1822,780,116,36,96,688,829,0
2814,7919,1753,1005,31,16,44,679,471,0
2815,0,1,1,1,1,4,0,0,0
2816,417,88,59,4,1,4,40,791,0
2817,304,117,78,37,6,11,40,945,0
2818,37,206,124,78,37,114,54,472,0
2819,7,6,4,1,1,1,2,5,0
2820,551,6319,4576,55,1,75,2603,38,0
2821,10591,732,199,1,1,4,288,137,0
2822,851,131,30,6,1,6,55,3418,0
2823,5729,1996,678,94,4,41,669,392,0
2824,192,151,33,8,3,6,68,506,0
2825,8613,39332,15744,3,1,127,10560,430,0
2826,195,158,53,142,14,66,60,890,0
2827,1062,4525,1400,134,30,136,1796,137,0
2828,69,6,1,3,1,3,2,145,0
2829,33,12,1,6,1,6,2,100,0
2830,3831,1458,740,235,1,160,567,2765,0
2831,4074,551,234,23,1,72,239,2172,0
2832,5245,2718,360,131,1,126,890,2942,0
2833,521,28,3,6,3,6,12,1014,0
2834,22670,4890,2114,9,4,8,1917,415,0
2835,603,12533,9801,130,24,1005,4801,79,0
2836,670,985,210,256,8,234,350,834,0
2837,278,5729,3903,276,72,321,1762,235,0
2838,22670,4890,2114,9,4,8,1917,415,0
2839,1,35,3,8,3,13,12,68,0
2840,5729,1996,678,94,4,41,669,392,0
2841,1415,2674,1287,324,35,266,852,275,0
2842,9,8,3,1,1,1,3,27,0
2843,43,20,14,1,1,364,6,47,0
2844,3381,11679,4153,499,81,825,3450,179,0
2845,363,816,433,66,23,121,296,92,0
2846,44,41,7,16,8,18,15,1288,0
2847,16328,3465,858,68,13,76,1323,2681,0
2848,3673,12072,5997,8,6,70,3918,79,0
2849,26319,17742,8309,1,1,1,7321,265,0
2850,2266,636,170,112,1,66,206,1679,0
2851,1437,104,34,6,1,51,47,721,0
2852,363,816,433,66,23,121,296,92,0
2853,22,129,62,32,15,33,35,433,0
2854,2513,152,43,1,1,1,69,3212,0
2855,16328,3465,858,68,13,76,1323,2681,0
2856,11,14,5,22,1,21,6,627,0
2857,31522,11111,4056,49,1,44,4951,194,0
2858,113,3,1,4,1,9,1,0,0
2859,6,6,4,4,1,4,2,185,0
2860,451,3,1,1,1,33,1,1300,0
2861,40,27,9,1,1,1,10,215,0
2862,555,35,7,11,1,9,15,597,0
2863,9392,1463,845,13,1,40,600,548,0
2864,19561,57447,53115,143,4,148,3641,659,0
2865,2344,452,204,11,1,9,188,1122,0
2866,1061,646,215,223,6,275,271,1843,0
2867,16572,15608,5618,43,11,36,5759,332,0
2868,67,6,6,16,1,22,2,5,0
2869,38425,127257,49353,218,73,167,23939,245,0
2870,43,20,14,1,1,364,6,47,0
2871,27,1,1,6,6,6,0,0,0
2872,6190,567,119,1,1,58,211,549,0
2873,6694,3078,725,21,6,28,1093,707,0
2874,131,1,1,1,1,1,0,0,0
2875,38425,127257,49353,218,73,167,23939,245,0
2876,228,781,193,186,13,155,192,1970,0
2877,826,1181,567,64,8,98,466,1052,0
2878,187,67,14,45,13,38,29,792,0
2879,40,27,9,1,1,1,10,215,0
2880,335,3,1,1,1,1,1,560,0
2881,4074,551,234,23,1,72,239,2172,0
2882,11,125,1,31,1,28,30,536,0
2883,10406,24184,9815,139,1,330,8550,591,0
2884,16294,17955,6856,45,13,158,6867,608,0
2885,1948,488,140,122,1,90,190,1537,0
2886,6694,3078,725,21,6,28,1093,707,0
2887,222,53,16,23,1,16,18,1394,0
2888,6209,4933,2067,41,9,31,2021,760,0
2889,15043,99021,50121,104,1,1931,28564,110,0
2890,16328,3465,858,68,13,76,1323,2681,0
2891,1062,4525,1400,134,30,136,1796,137,0
2892,7149,890,104,142,8,81,322,2501,0
2893,16,1,1,1,1,1,0,0,0
2894,1971,974,572,138,18,127,378,599,0
2895,12680,135806,18831,272,131,183,35645,169,0
2896,213,96,3,1,1,1,42,268,0
2897,3053,509,108,36,4,34,200,2367,0
2898,2963,990,278,8,3,3,430,2417,0
2899,1,6,1,1,1,1,2,335,0
2900,56504,176706,92773,208,163,1321,58691,257,0
2901,7095,10059,4408,62,29,180,3999,391,0
2902,12772,3118,1426,45,10,48,1280,485,0
2903,12,6,4,4,1,4,2,505,0
2904,22232,1765,423,68,13,44,696,2343,0
2905,10591,732,199,1,1,4,288,137,0
2906,131,1,1,1,1,1,0,0,0
2907,6734,6609,2971,283,8,207,2376,664,0
2908,6820,2464,747,213,13,153,683,2358,0
2909,14891,381595,1320,22,6,41,21964,192,0
2910,400,72,26,18,3,8,28,863,0
2911,496,1914,627,1,1,1,599,152,0
2912,1356,15296,2829,768,54,1044,3307,501,0
2913,477,301,16,53,1,48,111,2242,0
2914,74528,44779,17489,164,1,167,14301,578,0
2915,5187,4552,2938,302,1,211,1793,1590,0
2916,228,905,258,57,11,52,369,184,0
2917,1446,5,3,1,1,1,2,430,0
2918,3831,1458,740,235,1,160,567,2765,0
2919,278,396,39,15,1,13,116,640,0
2920,213,522,232,4,1,68,195,117,0
2921,2794,772,240,125,26,126,307,1592,0
2922,44,41,7,16,8,18,15,1288,0
2923,213,522,232,4,1,68,195,117,0
2924,3680,1656,891,52,24,72,682,830,0
2925,3137,480,251,1,1,1,203,301,0
2926,5187,4552,2938,302,1,211,1793,1590,0
2927,112,23,7,9,1,14,11,133,0
2928,15143,68815,50136,227,24,184,23958,213,0
2929,1590,2996,802,1,1,1,791,1223,0
2930,11,29,5,15,3,13,9,161,0
2931,5259,1415,353,38,6,30,578,974,0
2932,30622,16743,3884,293,73,177,6261,532,0
2933,16,22,5,1,1,4,10,919,0
2934,3354,2585,1245,75,6,110,973,410,0
2935,826,1181,567,64,8,98,466,1052,0
2936,16328,3465,858,68,13,76,1323,2681,0
2937,890,149,11,21,4,26,49,2980,0
2938,890,2011,1363,1,1,1,728,246,0
2939,474,406,59,196,19,123,128,1074,0
2940,3,22,3,70,13,41,9,146,0
2941,496,1914,627,1,1,1,599,152,0
2942,449,929,165,25,1,30,355,1026,0
2943,13838,1332,560,26,11,26,562,1352,0
2944,0,1,1,1,1,3,0,0,0
2945,15,17,1,4,4,51,4,60,0
2946,1948,488,140,122,1,90,190,1537,0
2947,17,4,1,1,1,1,1,10,0
2948,4626,7107,3102,97,51,170,2689,396,0
2949,30,3,1,1,1,1,1,170,0
2950,1,29,1,8,1,11,9,144,0
2951,883,1284,239,66,3,123,228,728,0
2952,70,8,1,3,1,13,3,747,0
2953,16328,3465,858,68,13,76,1323,2681,0
2954,603,12533,9801,130,24,1005,4801,79,0
2955,2804,248,45,21,6,16,92,2583,0
2956,29,23,3,51,20,44,11,1924,0
2957,15836,50886,62,8,3,11,18549,48,0
2958,301,14,1,1,1,1,6,153,0
2959,2672,2268,721,38,20,31,887,687,0
2960,22232,1765,423,68,13,44,696,2343,0
2961,67,6,6,16,1,22,2,5,0
2962,103,171,27,59,6,36,61,794,0
2963,2963,990,278,8,3,3,430,2417,0
2964,1356,15296,2829,768,54,1044,3307,501,0
2965,15836,50886,62,8,3,11,18549,48,0
2966,5245,2718,360,131,1,126,890,2942,0
2967,6209,4933,2067,41,9,31,2021,760,0
2968,1446,5,3,1,1,1,2,430,0
2969,70,8,1,3,1,13,3,747,0
2970,19561,57447,53115,143,4,148,3641,659,0
2971,370,294,64,4,1,11,107,332,0
2972,34,118,11,56,19,59,34,765,0
2973,14,10,1,1,1,1,4,850,0
2974,6870,91,53,1,1,1,42,666,0
2975,22729,3498,1071,6,1,24,1359,557,0
2976,1971,974,572,138,18,127,378,599,0
2977,10591,732,199,1,1,4,288,137,0
2978,30622,16743,3884,293,73,177,6261,532,0
2979,26,188,60,77,50,107,52,332,0
2980,16294,17955,6856,45,13,158,6867,608,0
2981,14,1,1,3,1,3,0,0,0
2982,165,74,1,40,9,26,21,1097,0
2983,16572,15608,5618,43,11,36,5759,332,0
2984,144,81,77,11,11,425,12,1216,0
2985,4115,1718,373,44,15,42,690,1260,0
2986,15836,50886,62,8,3,11,18549,48,0
2987,3456,2239,856,237,93,211,871,3328,0
2988,6737,522,136,35,11,28,219,2607,0
2989,13109,3744,953,26,16,23,1539,535,0
2990,1689,154,40,82,3,70,66,755,0
2991,1197,219,73,9,1,6,93,516,0
2992,119,11,3,3,3,6,5,606,0
2993,20057,9677,5794,45,8,62,4027,576,0
2994,15647,191298,145527,21,6,163,52580,31,0
2995,36,4,1,4,1,4,1,40,0
2996,316,192,99,1,1,1,66,556,0
2997,17897,43364,6686,74,18,31,12252,164,0
2998,3381,11679,4153,499,81,825,3450,179,0
2999,112,23,7,9,1,14,11,133,0
